EESchema Schematic File Version 2
LIBS:power
LIBS:device
LIBS:transistors
LIBS:conn
LIBS:linear
LIBS:regul
LIBS:74xx
LIBS:cmos4000
LIBS:adc-dac
LIBS:memory
LIBS:xilinx
LIBS:microcontrollers
LIBS:dsp
LIBS:microchip
LIBS:analog_switches
LIBS:motorola
LIBS:texas
LIBS:intel
LIBS:audio
LIBS:interface
LIBS:digital-audio
LIBS:philips
LIBS:display
LIBS:cypress
LIBS:siliconi
LIBS:opto
LIBS:atmel
LIBS:contrib
LIBS:valves
LIBS:my-relays
LIBS:2.1-anti-pop-cache
EELAYER 25 0
EELAYER END
$Descr A4 11693 8268
encoding utf-8
Sheet 1 1
Title ""
Date ""
Rev ""
Comp ""
Comment1 ""
Comment2 ""
Comment3 ""
Comment4 ""
$EndDescr
$Comp
L R R1
U 1 1 58270F96
P 2100 3050
F 0 "R1" V 2180 3050 50  0000 C CNN
F 1 "330" V 2100 3050 50  0000 C CNN
F 2 "Resistors_ThroughHole:Resistor_Horizontal_RM15mm" V 2030 3050 50  0001 C CNN
F 3 "" H 2100 3050 50  0000 C CNN
	1    2100 3050
	0    1    1    0   
$EndComp
$Comp
L LTV-817 U2
U 1 1 58271541
P 3350 3150
F 0 "U2" H 3150 3350 50  0000 L CNN
F 1 "TIL191" H 3350 3350 50  0000 L CNN
F 2 "Housings_DIP:DIP-4_W7.62mm_LongPads" H 2700 3450 50  0001 L CIN
F 3 "" H 3350 3050 50  0000 L CNN
	1    3350 3150
	1    0    0    -1  
$EndComp
$Comp
L C C1
U 1 1 58271B98
P 2500 3050
F 0 "C1" H 2400 3150 50  0000 L CNN
F 1 "47nF X2 400V" H 2150 2950 50  0000 L CNN
F 2 "Capacitors_ThroughHole:C_Rect_L18_W9_H15_P15" H 2538 2900 50  0001 C CNN
F 3 "" H 2500 3050 50  0000 C CNN
	1    2500 3050
	0    1    1    0   
$EndComp
$Comp
L D D1
U 1 1 58271FCF
P 2750 3400
F 0 "D1" H 2750 3500 50  0000 C CNN
F 1 "1N4148" H 2750 3300 50  0000 C CNN
F 2 "Diodes_ThroughHole:Diode_DO-35_SOD27_Horizontal_RM10" H 2750 3400 50  0001 C CNN
F 3 "" H 2750 3400 50  0000 C CNN
	1    2750 3400
	0    1    1    0   
$EndComp
$Comp
L CP1 C2
U 1 1 5827324C
P 4050 3600
F 0 "C2" H 4075 3700 50  0000 L CNN
F 1 "33µF 25V" H 3850 3450 50  0000 L CNN
F 2 "Capacitors_ThroughHole:C_Radial_D5_L11_P2" H 4050 3600 50  0001 C CNN
F 3 "" H 4050 3600 50  0000 C CNN
	1    4050 3600
	1    0    0    -1  
$EndComp
$Comp
L VDD #PWR01
U 1 1 584D77D3
P 4850 1850
F 0 "#PWR01" H 4850 1700 50  0001 C CNN
F 1 "VDD" H 4850 2000 50  0000 C CNN
F 2 "" H 4850 1850 50  0000 C CNN
F 3 "" H 4850 1850 50  0000 C CNN
	1    4850 1850
	1    0    0    -1  
$EndComp
$Comp
L R R9
U 1 1 58379EA6
P 4850 2300
F 0 "R9" V 4930 2300 50  0000 C CNN
F 1 "47K" V 4850 2300 50  0000 C CNN
F 2 "Resistors_ThroughHole:Resistor_Horizontal_RM10mm" V 4780 2300 50  0001 C CNN
F 3 "" H 4850 2300 50  0000 C CNN
	1    4850 2300
	1    0    0    -1  
$EndComp
$Comp
L Q_NPN_EBC Q2
U 1 1 58379963
P 4750 3050
F 0 "Q2" H 4650 3150 50  0000 R CNN
F 1 "2N2222" H 4750 2850 50  0000 R CNN
F 2 "library:TO-18_3Pin" H 4950 3150 50  0001 C CNN
F 3 "" H 4750 3050 50  0000 C CNN
	1    4750 3050
	1    0    0    -1  
$EndComp
$Comp
L R R7
U 1 1 583799E6
P 4300 3050
F 0 "R7" V 4380 3050 50  0000 C CNN
F 1 "470K" V 4300 3050 50  0000 C CNN
F 2 "Resistors_ThroughHole:Resistor_Horizontal_RM10mm" V 4230 3050 50  0001 C CNN
F 3 "" H 4300 3050 50  0000 C CNN
	1    4300 3050
	0    -1   -1   0   
$EndComp
$Comp
L R R6
U 1 1 58273F1B
P 4050 2550
F 0 "R6" V 4130 2550 50  0000 C CNN
F 1 "47K" V 4050 2550 50  0000 C CNN
F 2 "Resistors_ThroughHole:Resistor_Horizontal_RM10mm" V 3980 2550 50  0001 C CNN
F 3 "" H 4050 2550 50  0000 C CNN
	1    4050 2550
	1    0    0    -1  
$EndComp
$Comp
L VSS #PWR06
U 1 1 584D78B1
P 5350 4350
F 0 "#PWR06" H 5350 4200 50  0001 C CNN
F 1 "VSS" H 5350 4500 50  0000 C CNN
F 2 "" H 5350 4350 50  0000 C CNN
F 3 "" H 5350 4350 50  0000 C CNN
	1    5350 4350
	-1   0    0    1   
$EndComp
$Comp
L CONN_01X03 P4
U 1 1 58757D09
P 1650 3150
F 0 "P4" H 1650 3350 50  0000 C CNN
F 1 "230V" V 1750 3150 50  0000 C CNN
F 2 "library:JST-B3P-VH" H 1650 3150 50  0001 C CNN
F 3 "" H 1650 3150 50  0000 C CNN
	1    1650 3150
	-1   0    0    1   
$EndComp
$Comp
L R R10
U 1 1 5855601B
P 5100 2050
F 0 "R10" V 5180 2050 50  0000 C CNN
F 1 "68K" V 5100 2050 50  0000 C CNN
F 2 "Resistors_ThroughHole:Resistor_Horizontal_RM10mm" V 5030 2050 50  0001 C CNN
F 3 "" H 5100 2050 50  0000 C CNN
	1    5100 2050
	0    -1   -1   0   
$EndComp
Text Label 9300 2250 0    60   ~ 0
WOOFER
Text Label 9350 2550 0    60   ~ 0
WGND
Text Label 9450 850  0    60   ~ 0
LGND
Text Label 9400 1150 0    60   ~ 0
RIGHT
Text Label 9400 1450 0    60   ~ 0
LEFT
Text Label 9400 1750 0    60   ~ 0
RGND
$Comp
L +12V #PWR07
U 1 1 586B6E51
P 9050 1350
F 0 "#PWR07" H 9050 1200 50  0001 C CNN
F 1 "+12V" H 9050 1490 50  0000 C CNN
F 2 "" H 9050 1350 50  0000 C CNN
F 3 "" H 9050 1350 50  0000 C CNN
	1    9050 1350
	1    0    0    -1  
$EndComp
$Comp
L -12V #PWR14
U 1 1 586B6CE5
P 8450 4850
F 0 "#PWR14" H 8450 4950 50  0001 C CNN
F 1 "-12V" H 8450 5000 50  0000 C CNN
F 2 "" H 8450 4850 50  0000 C CNN
F 3 "" H 8450 4850 50  0000 C CNN
	1    8450 4850
	-1   0    0    1   
$EndComp
$Comp
L VDD #PWR04
U 1 1 586B1E4E
P 7650 3350
F 0 "#PWR04" H 7650 3200 50  0001 C CNN
F 1 "VDD" H 7650 3500 50  0000 C CNN
F 2 "" H 7650 3350 50  0000 C CNN
F 3 "" H 7650 3350 50  0000 C CNN
	1    7650 3350
	1    0    0    -1  
$EndComp
$Comp
L VDD #PWR03
U 1 1 586B02D3
P 8450 3350
F 0 "#PWR03" H 8450 3200 50  0001 C CNN
F 1 "VDD" H 8450 3500 50  0000 C CNN
F 2 "" H 8450 3350 50  0000 C CNN
F 3 "" H 8450 3350 50  0000 C CNN
	1    8450 3350
	1    0    0    -1  
$EndComp
$Comp
L Q_NPN_EBC Q4
U 1 1 5863CAEA
P 8350 4150
F 0 "Q4" H 8650 4200 50  0000 R CNN
F 1 "2N1711" H 8800 4100 50  0000 R CNN
F 2 "library:TO-39-3Pin" H 8550 4250 50  0001 C CNN
F 3 "" H 8350 4150 50  0000 C CNN
	1    8350 4150
	1    0    0    -1  
$EndComp
$Comp
L CONN_01X01 P11
U 1 1 5837DE6D
P 9850 2550
F 0 "P11" H 9850 2650 50  0000 C CNN
F 1 "WGND" V 9950 2550 50  0000 C CNN
F 2 "Wire_Pads:SolderWirePad_single_2-5mmDrill" H 9850 2550 50  0001 C CNN
F 3 "" H 9850 2550 50  0000 C CNN
	1    9850 2550
	1    0    0    -1  
$EndComp
$Comp
L CONN_01X01 P6
U 1 1 5837DDE8
P 9850 850
F 0 "P6" H 9850 950 50  0000 C CNN
F 1 "LGND" V 9950 850 50  0000 C CNN
F 2 "Wire_Pads:SolderWirePad_single_2-5mmDrill" H 9850 850 50  0001 C CNN
F 3 "" H 9850 850 50  0000 C CNN
	1    9850 850 
	1    0    0    -1  
$EndComp
$Comp
L CONN_01X01 P9
U 1 1 5837D59A
P 9850 1750
F 0 "P9" H 9850 1850 50  0000 C CNN
F 1 "RGND" V 9950 1750 50  0000 C CNN
F 2 "Wire_Pads:SolderWirePad_single_2-5mmDrill" H 9850 1750 50  0001 C CNN
F 3 "" H 9850 1750 50  0000 C CNN
	1    9850 1750
	1    0    0    -1  
$EndComp
$Comp
L CONN_01X01 P10
U 1 1 5837CFB5
P 9850 2250
F 0 "P10" H 9850 2350 50  0000 C CNN
F 1 "WOOFER" V 9950 2250 50  0000 C CNN
F 2 "Wire_Pads:SolderWirePad_single_2-5mmDrill" H 9850 2250 50  0001 C CNN
F 3 "" H 9850 2250 50  0000 C CNN
	1    9850 2250
	1    0    0    -1  
$EndComp
$Comp
L CONN_01X01 P8
U 1 1 5837CE85
P 9850 1450
F 0 "P8" H 9850 1550 50  0000 C CNN
F 1 "LEFT" V 9950 1450 50  0000 C CNN
F 2 "Wire_Pads:SolderWirePad_single_2-5mmDrill" H 9850 1450 50  0001 C CNN
F 3 "" H 9850 1450 50  0000 C CNN
	1    9850 1450
	1    0    0    -1  
$EndComp
$Comp
L CONN_01X01 P7
U 1 1 5837CC97
P 9850 1150
F 0 "P7" H 9850 1250 50  0000 C CNN
F 1 "RIGHT" V 9950 1150 50  0000 C CNN
F 2 "Wire_Pads:SolderWirePad_single_2-5mmDrill" H 9850 1150 50  0001 C CNN
F 3 "" H 9850 1150 50  0000 C CNN
	1    9850 1150
	1    0    0    -1  
$EndComp
$Comp
L RELAY-2RT K2
U 1 1 58178069
P 8350 2500
F 0 "K2" H 8300 2900 50  0000 C CNN
F 1 "RELAY-2RT" H 8500 2000 50  0000 C CNN
F 2 "library:Relay_DPDT_Finder-RT2_RM5mm" H 8350 2500 50  0001 C CNN
F 3 "" H 8350 2500 50  0000 C CNN
	1    8350 2500
	-1   0    0    -1  
$EndComp
$Comp
L RELAY-2RT K1
U 1 1 58178024
P 8350 1400
F 0 "K1" H 8300 1800 50  0000 C CNN
F 1 "RELAY-2RT" H 8500 900 50  0000 C CNN
F 2 "library:Relay_DPDT_Finder-RT2_RM5mm" H 8350 1400 50  0001 C CNN
F 3 "" H 8350 1400 50  0000 C CNN
	1    8350 1400
	-1   0    0    -1  
$EndComp
$Comp
L D D2
U 1 1 58175883
P 8450 3600
F 0 "D2" H 8450 3700 50  0000 C CNN
F 1 "1N4148" H 8450 3500 50  0000 C CNN
F 2 "Diodes_ThroughHole:Diode_DO-35_SOD27_Horizontal_RM10" H 8450 3600 50  0001 C CNN
F 3 "" H 8450 3600 50  0000 C CNN
	1    8450 3600
	0    1    1    0   
$EndComp
$Comp
L R R12
U 1 1 5817530E
P 7900 4150
F 0 "R12" V 7980 4150 50  0000 C CNN
F 1 "22K" V 7900 4150 50  0000 C CNN
F 2 "Resistors_ThroughHole:Resistor_Horizontal_RM10mm" V 7830 4150 50  0001 C CNN
F 3 "" H 7900 4150 50  0000 C CNN
	1    7900 4150
	0    -1   -1   0   
$EndComp
$Comp
L VDD #PWR08
U 1 1 586B9643
P 5650 4050
F 0 "#PWR08" H 5650 3900 50  0001 C CNN
F 1 "VDD" H 5650 4200 50  0000 C CNN
F 2 "" H 5650 4050 50  0000 C CNN
F 3 "" H 5650 4050 50  0000 C CNN
	1    5650 4050
	1    0    0    -1  
$EndComp
Text Label 7000 1550 0    60   ~ 0
WOOFER-IN
Text Label 7500 1450 0    60   ~ 0
LEFT-IN
Text Label 7450 1250 0    60   ~ 0
RIGHT-IN
$Comp
L R R11
U 1 1 586B127E
P 7100 3650
F 0 "R11" V 7180 3650 50  0000 C CNN
F 1 "470K" V 7100 3650 50  0000 C CNN
F 2 "Resistors_ThroughHole:Resistor_Horizontal_RM10mm" V 7030 3650 50  0001 C CNN
F 3 "" H 7100 3650 50  0000 C CNN
	1    7100 3650
	0    -1   -1   0   
$EndComp
$Comp
L Q_PNP_EBC Q3
U 1 1 586B1124
P 7550 3650
F 0 "Q3" H 7850 3700 50  0000 R CNN
F 1 "2N2907" H 8150 3600 50  0000 R CNN
F 2 "library:TO-18_3Pin" H 7750 3750 50  0001 C CNN
F 3 "" H 7550 3650 50  0000 C CNN
	1    7550 3650
	1    0    0    1   
$EndComp
$Comp
L 4011 U3
U 4 1 5855D4F7
P 6250 4250
F 0 "U3" H 6250 4300 50  0000 C CNN
F 1 "4093" H 6250 4200 50  0000 C CNN
F 2 "Housings_DIP:DIP-14_W7.62mm_LongPads" H 6250 4250 60  0001 C CNN
F 3 "" H 6250 4250 60  0000 C CNN
	4    6250 4250
	1    0    0    -1  
$EndComp
$Comp
L 4011 U3
U 3 1 5855D25A
P 6250 3650
F 0 "U3" H 6250 3700 50  0000 C CNN
F 1 "4093" H 6250 3600 50  0000 C CNN
F 2 "Housings_DIP:DIP-14_W7.62mm_LongPads" H 6250 3650 60  0001 C CNN
F 3 "" H 6250 3650 60  0000 C CNN
	3    6250 3650
	1    0    0    1   
$EndComp
$Comp
L 4011 U3
U 2 1 5855D205
P 6250 3050
F 0 "U3" H 6250 3100 50  0000 C CNN
F 1 "4093" H 6250 3000 50  0000 C CNN
F 2 "Housings_DIP:DIP-14_W7.62mm_LongPads" H 6250 3050 60  0001 C CNN
F 3 "" H 6250 3050 60  0000 C CNN
	2    6250 3050
	1    0    0    -1  
$EndComp
$Comp
L 4011 U3
U 1 1 584D4662
P 6250 2450
F 0 "U3" H 6250 2500 50  0000 C CNN
F 1 "4093" H 6250 2400 50  0000 C CNN
F 2 "Housings_DIP:DIP-14_W7.62mm_LongPads" H 6250 2450 60  0001 C CNN
F 3 "" H 6250 2450 60  0000 C CNN
	1    6250 2450
	1    0    0    -1  
$EndComp
$Comp
L CP1 C7
U 1 1 585560BE
P 5350 3150
F 0 "C7" H 5375 3250 50  0000 L CNN
F 1 "100µF 16V" H 5150 3000 50  0000 L CNN
F 2 "Capacitors_ThroughHole:C_Radial_D5_L11_P2" H 5350 3150 50  0001 C CNN
F 3 "" H 5350 3150 50  0000 C CNN
	1    5350 3150
	1    0    0    -1  
$EndComp
Wire Wire Line
	8450 3750 8450 3950
Connection ~ 8450 3850
Wire Wire Line
	8450 4350 8450 4850
Wire Wire Line
	2400 3750 2950 3750
Wire Wire Line
	2650 3050 3050 3050
Wire Wire Line
	2750 3050 2750 3250
Connection ~ 2750 3050
Wire Wire Line
	2750 3750 2750 3550
Connection ~ 2750 3750
Wire Wire Line
	2950 3250 3050 3250
Wire Wire Line
	4050 4050 4050 3750
Connection ~ 4050 4050
Wire Wire Line
	4050 2050 4050 2400
Wire Wire Line
	3650 3250 3750 3250
Wire Wire Line
	3750 3250 3750 4050
Connection ~ 4050 3050
Wire Wire Line
	3650 3050 4150 3050
Wire Wire Line
	2950 3750 2950 3250
Wire Wire Line
	4850 1850 4850 2150
Wire Wire Line
	4850 2450 4850 2850
Wire Wire Line
	4850 4050 4850 3250
Connection ~ 4850 2550
Connection ~ 4850 4050
Wire Wire Line
	7650 1550 7650 2650
Wire Wire Line
	7650 2350 7950 2350
Wire Wire Line
	7650 2650 7950 2650
Connection ~ 7650 2350
Wire Wire Line
	8750 1450 9650 1450
Wire Wire Line
	8750 1150 9650 1150
Wire Wire Line
	8750 2250 9650 2250
Wire Wire Line
	6850 1050 6850 750 
Wire Wire Line
	6850 750  9450 750 
Wire Wire Line
	9450 750  9450 850 
Wire Wire Line
	9450 850  9650 850 
Wire Wire Line
	6950 1250 6950 800 
Wire Wire Line
	6950 800  9350 800 
Wire Wire Line
	9350 800  9350 1750
Wire Wire Line
	9350 1750 9650 1750
Wire Wire Line
	9250 2550 9650 2550
Wire Wire Line
	9250 850  9250 2550
Wire Wire Line
	7050 850  9250 850 
Wire Wire Line
	7050 1450 7050 850 
Wire Wire Line
	4850 2550 5650 2550
Wire Wire Line
	5550 2050 5550 2350
Wire Wire Line
	5550 2350 5650 2350
Connection ~ 4850 2050
Wire Wire Line
	7350 1150 7350 1450
Wire Wire Line
	7350 1450 7950 1450
Wire Wire Line
	8450 3350 8450 3450
Wire Wire Line
	8950 3850 8450 3850
Wire Wire Line
	8950 2850 8750 2850
Wire Wire Line
	9050 2750 8750 2750
Wire Wire Line
	9050 1350 9050 2750
Wire Wire Line
	9050 1650 8750 1650
Connection ~ 9050 1650
Wire Wire Line
	8950 1750 8750 1750
Connection ~ 8950 2850
Wire Wire Line
	8750 2550 8850 2550
Wire Wire Line
	8850 2550 8850 2250
Connection ~ 8850 2250
Wire Wire Line
	4450 3050 4550 3050
Wire Wire Line
	4050 2700 4050 3450
Wire Wire Line
	5250 2050 5550 2050
Wire Wire Line
	5350 2050 5350 3000
Connection ~ 5350 2050
Wire Wire Line
	5350 3300 5350 4350
Wire Wire Line
	5650 4150 5650 4150
Wire Wire Line
	6850 2450 6950 2450
Wire Wire Line
	6950 2450 6950 2750
Wire Wire Line
	6950 2750 5550 2750
Wire Wire Line
	5550 2750 5550 3150
Wire Wire Line
	5550 2950 5650 2950
Wire Wire Line
	5550 3150 5650 3150
Connection ~ 5550 2950
Wire Wire Line
	6850 3050 6950 3050
Wire Wire Line
	6950 3050 6950 3350
Wire Wire Line
	6950 3350 5550 3350
Wire Wire Line
	5550 3350 5550 3550
Wire Wire Line
	5550 4250 5550 3750
Connection ~ 3750 4050
Wire Wire Line
	5550 3550 5650 3550
Wire Wire Line
	5550 3750 5650 3750
Wire Wire Line
	4050 2050 4950 2050
Wire Wire Line
	7250 3650 7350 3650
Wire Wire Line
	7650 3350 7650 3450
Wire Wire Line
	6950 3650 6850 3650
Wire Wire Line
	7650 3850 7650 4150
Wire Wire Line
	7650 4150 7750 4150
Wire Wire Line
	8050 4150 8150 4150
Wire Wire Line
	5650 4050 5650 4350
Connection ~ 5650 4150
Wire Wire Line
	8950 1750 8950 3850
Wire Wire Line
	7450 1350 7450 1250
Wire Wire Line
	7450 1250 7950 1250
Wire Wire Line
	7950 1450 7950 1550
Connection ~ 5350 4050
Wire Wire Line
	1850 3050 1950 3050
Wire Wire Line
	2250 3050 2350 3050
Wire Wire Line
	1850 3250 2400 3250
Wire Wire Line
	2400 3250 2400 3750
Connection ~ 3350 4250
Wire Wire Line
	3350 3900 3350 4250
Wire Wire Line
	3350 3550 3350 3600
$Comp
L VDD #PWR02
U 1 1 586B0213
P 3350 3550
F 0 "#PWR02" H 3350 3400 50  0001 C CNN
F 1 "VDD" H 3350 3700 50  0000 C CNN
F 2 "" H 3350 3550 50  0000 C CNN
F 3 "" H 3350 3550 50  0000 C CNN
	1    3350 3550
	1    0    0    -1  
$EndComp
$Comp
L R R4
U 1 1 58685507
P 3350 3750
F 0 "R4" V 3430 3750 50  0000 C CNN
F 1 "470K" V 3350 3750 50  0000 C CNN
F 2 "Resistors_ThroughHole:Resistor_Horizontal_RM10mm" V 3280 3750 50  0001 C CNN
F 3 "" H 3350 3750 50  0000 C CNN
	1    3350 3750
	1    0    0    -1  
$EndComp
Wire Wire Line
	1850 4250 5550 4250
Wire Wire Line
	1950 4350 1950 4450
Wire Wire Line
	1850 4350 1950 4350
Wire Wire Line
	1950 4150 1850 4150
Wire Wire Line
	1950 3850 1950 4150
Wire Wire Line
	1850 4050 5350 4050
$Comp
L +12V #PWR05
U 1 1 586B6761
P 1950 3850
F 0 "#PWR05" H 1950 3700 50  0001 C CNN
F 1 "+12V" H 1950 3990 50  0000 C CNN
F 2 "" H 1950 3850 50  0000 C CNN
F 3 "" H 1950 3850 50  0000 C CNN
	1    1950 3850
	1    0    0    -1  
$EndComp
$Comp
L CONN_01X04 P5
U 1 1 586B0C03
P 1650 4200
F 0 "P5" H 1650 4450 50  0000 C CNN
F 1 "DETECTION PWR" V 1750 4200 50  0000 C CNN
F 2 "Pin_Headers:Pin_Header_Straight_1x04" H 1650 4200 50  0001 C CNN
F 3 "" H 1650 4200 50  0000 C CNN
	1    1650 4200
	-1   0    0    -1  
$EndComp
Wire Wire Line
	2450 1950 2450 1050
Wire Wire Line
	1850 1950 2450 1950
Wire Wire Line
	2350 2050 2350 1150
Wire Wire Line
	1850 2050 2350 2050
Wire Wire Line
	2250 2150 2250 1250
Wire Wire Line
	1850 2150 2250 2150
Wire Wire Line
	2150 2250 2150 1350
Wire Wire Line
	1850 2250 2150 2250
Wire Wire Line
	2050 2350 2050 1450
Wire Wire Line
	1850 2350 2050 2350
Wire Wire Line
	1950 2450 1950 1550
Wire Wire Line
	1850 2450 1950 2450
Connection ~ 1950 1550
Connection ~ 2050 1450
Connection ~ 2150 1350
Connection ~ 2250 1250
Connection ~ 2450 1050
Connection ~ 2350 1150
Wire Wire Line
	1850 1350 7450 1350
Wire Wire Line
	1850 1150 7350 1150
Wire Wire Line
	1850 1450 7050 1450
Wire Wire Line
	1850 1250 6950 1250
Wire Wire Line
	1850 1050 6850 1050
Wire Wire Line
	1850 1550 7650 1550
$Comp
L CONN_01X06 P2
U 1 1 5855ED4D
P 1650 2200
F 0 "P2" H 1650 2550 50  0000 C CNN
F 1 "DETECTION IN" V 1750 2200 50  0000 C CNN
F 2 "library:Pin_Header_Straight_508_1x6" H 1650 2200 50  0001 C CNN
F 3 "" H 1650 2200 50  0000 C CNN
	1    1650 2200
	-1   0    0    1   
$EndComp
$Comp
L CONN_01X06 P3
U 1 1 583776A1
P 1650 1300
F 0 "P3" H 1650 1650 50  0000 C CNN
F 1 "INPUT" V 1750 1300 50  0000 C CNN
F 2 "Connect:bornier6" H 1650 1300 50  0001 C CNN
F 3 "" H 1650 1300 50  0000 C CNN
	1    1650 1300
	-1   0    0    1   
$EndComp
$Comp
L Q_PNP_EBC Q5
U 1 1 587B91CD
P 3450 6650
F 0 "Q5" H 3750 6700 50  0000 R CNN
F 1 "2N2905" H 4050 6600 50  0000 R CNN
F 2 "" H 3650 6750 50  0000 C CNN
F 3 "" H 3450 6650 50  0000 C CNN
	1    3450 6650
	1    0    0    1   
$EndComp
$Comp
L CONN_01X02 P1
U 1 1 58756ED3
P 1600 5900
F 0 "P1" H 1600 6050 50  0000 C CNN
F 1 "24V" V 1700 5900 50  0000 C CNN
F 2 "Pin_Headers:Pin_Header_Straight_1x02" H 1600 5900 50  0001 C CNN
F 3 "" H 1600 5900 50  0000 C CNN
	1    1600 5900
	-1   0    0    1   
$EndComp
Wire Wire Line
	2000 4750 4800 4750
Wire Wire Line
	1800 5950 2000 5950
Wire Wire Line
	2000 5850 1800 5850
Wire Wire Line
	2350 7250 2350 6050
Connection ~ 2150 5850
Wire Wire Line
	2150 5850 2450 5850
Wire Wire Line
	2150 5550 2150 6350
Wire Wire Line
	4450 4750 4450 5250
Wire Wire Line
	4450 5550 4450 6350
Wire Wire Line
	2000 5950 2000 7150
Wire Wire Line
	4450 7150 4450 6650
Connection ~ 4450 5950
Wire Wire Line
	2000 4750 2000 5850
Connection ~ 4150 4750
Wire Wire Line
	4150 5550 4150 6350
Connection ~ 4150 5950
Wire Wire Line
	4150 6650 4150 7250
Connection ~ 4150 7150
Wire Wire Line
	4150 4650 4150 5250
Wire Wire Line
	3550 5450 3550 5550
Wire Wire Line
	3550 5850 3550 6050
Wire Wire Line
	3550 6350 3550 6450
Wire Wire Line
	3550 7150 3550 6850
Connection ~ 3550 7150
Wire Wire Line
	3550 4750 3550 5050
Connection ~ 3550 4750
Connection ~ 3550 5950
Wire Wire Line
	3050 5950 3150 5950
Wire Wire Line
	3150 5750 3150 6150
Connection ~ 3150 5950
Wire Wire Line
	3150 6450 3150 6750
Wire Wire Line
	3150 6650 3250 6650
Wire Wire Line
	3150 5150 3150 5450
Wire Wire Line
	3150 5250 3250 5250
Wire Wire Line
	3850 5950 3850 7250
Connection ~ 3850 5950
Wire Wire Line
	2150 5250 2150 4750
Connection ~ 2150 4750
Wire Wire Line
	2650 4750 2650 5650
Connection ~ 2650 4750
Wire Wire Line
	2650 7150 2650 6250
Connection ~ 2650 7150
Wire Wire Line
	2150 7150 2150 6650
Connection ~ 2150 7150
Wire Wire Line
	3850 7250 2350 7250
Connection ~ 3150 6650
Wire Wire Line
	3150 7150 3150 7050
Connection ~ 3150 7150
Wire Wire Line
	3150 4750 3150 4850
Connection ~ 3150 4750
Connection ~ 3150 5250
Connection ~ 4450 4750
Wire Wire Line
	3550 5950 5100 5950
Wire Wire Line
	4950 5950 4950 6150
Wire Wire Line
	2350 6050 2450 6050
Wire Wire Line
	4800 4750 4800 4650
Wire Wire Line
	2000 7150 4450 7150
Wire Wire Line
	5100 5950 5100 6150
Connection ~ 4950 5950
$Comp
L HEATSINK HS2
U 1 1 58752715
P 3500 6750
F 0 "HS2" H 3500 6950 50  0000 C CNN
F 1 "HEATSINK" H 3500 6700 50  0000 C CNN
F 2 "library:HeatSink-TO39" H 3500 6750 50  0001 C CNN
F 3 "" H 3500 6750 50  0000 C CNN
	1    3500 6750
	-1   0    0    1   
$EndComp
$Comp
L HEATSINK HS1
U 1 1 5875270E
P 3500 5150
F 0 "HS1" H 3500 5350 50  0000 C CNN
F 1 "HEATSINK" H 3500 5100 50  0000 C CNN
F 2 "library:HeatSink-TO39" H 3500 5150 50  0001 C CNN
F 3 "" H 3500 5150 50  0000 C CNN
	1    3500 5150
	1    0    0    -1  
$EndComp
$Comp
L R R8
U 1 1 587526E8
P 3150 6900
F 0 "R8" V 3230 6900 50  0000 C CNN
F 1 "5.6K" V 3150 6900 50  0000 C CNN
F 2 "Resistors_ThroughHole:Resistor_Horizontal_RM10mm" V 3080 6900 50  0001 C CNN
F 3 "" H 3150 6900 50  0000 C CNN
	1    3150 6900
	1    0    0    -1  
$EndComp
$Comp
L R R5
U 1 1 587526E1
P 3150 5000
F 0 "R5" V 3230 5000 50  0000 C CNN
F 1 "5.6K" V 3150 5000 50  0000 C CNN
F 2 "Resistors_ThroughHole:Resistor_Horizontal_RM10mm" V 3080 5000 50  0001 C CNN
F 3 "" H 3150 5000 50  0000 C CNN
	1    3150 5000
	1    0    0    -1  
$EndComp
$Comp
L D D4
U 1 1 587526C9
P 3150 6300
F 0 "D4" H 3150 6400 50  0000 C CNN
F 1 "1N4148" H 3150 6200 50  0000 C CNN
F 2 "Diodes_ThroughHole:Diode_DO-35_SOD27_Horizontal_RM10" H 3150 6300 50  0001 C CNN
F 3 "" H 3150 6300 50  0000 C CNN
	1    3150 6300
	0    -1   -1   0   
$EndComp
$Comp
L D D3
U 1 1 587526C2
P 3150 5600
F 0 "D3" H 3150 5700 50  0000 C CNN
F 1 "1N4148" H 3150 5500 50  0000 C CNN
F 2 "Diodes_ThroughHole:Diode_DO-35_SOD27_Horizontal_RM10" H 3150 5600 50  0001 C CNN
F 3 "" H 3150 5600 50  0000 C CNN
	1    3150 5600
	0    -1   -1   0   
$EndComp
$Comp
L R R14
U 1 1 5875269F
P 3550 6200
F 0 "R14" V 3630 6200 50  0000 C CNN
F 1 "56" V 3550 6200 50  0000 C CNN
F 2 "Resistors_ThroughHole:Resistor_Horizontal_RM20mm" V 3480 6200 50  0001 C CNN
F 3 "" H 3550 6200 50  0000 C CNN
	1    3550 6200
	1    0    0    -1  
$EndComp
$Comp
L R R13
U 1 1 58752698
P 3550 5700
F 0 "R13" V 3630 5700 50  0000 C CNN
F 1 "56" V 3550 5700 50  0000 C CNN
F 2 "Resistors_ThroughHole:Resistor_Horizontal_RM20mm" V 3480 5700 50  0001 C CNN
F 3 "" H 3550 5700 50  0000 C CNN
	1    3550 5700
	1    0    0    -1  
$EndComp
$Comp
L +12V #PWR012
U 1 1 5875268B
P 4150 4650
F 0 "#PWR012" H 4150 4500 50  0001 C CNN
F 1 "+12V" H 4150 4790 50  0000 C CNN
F 2 "" H 4150 4650 50  0000 C CNN
F 3 "" H 4150 4650 50  0000 C CNN
	1    4150 4650
	1    0    0    -1  
$EndComp
$Comp
L GND #PWR011
U 1 1 58752685
P 4950 6150
F 0 "#PWR011" H 4950 5900 50  0001 C CNN
F 1 "GND" H 4950 6000 50  0000 C CNN
F 2 "" H 4950 6150 50  0000 C CNN
F 3 "" H 4950 6150 50  0000 C CNN
	1    4950 6150
	1    0    0    -1  
$EndComp
$Comp
L -12V #PWR5
U 1 1 5875267F
P 4150 7250
F 0 "#PWR5" H 4150 7350 50  0001 C CNN
F 1 "-12V" H 4150 7400 50  0000 C CNN
F 2 "" H 4150 7250 50  0000 C CNN
F 3 "" H 4150 7250 50  0000 C CNN
	1    4150 7250
	-1   0    0    1   
$EndComp
$Comp
L LM741 U1
U 1 1 58752678
P 2750 5950
F 0 "U1" H 2750 6200 50  0000 L CNN
F 1 "LM741" H 2750 6100 50  0000 L CNN
F 2 "Housings_DIP:DIP-8_W7.62mm_LongPads" H 2800 6000 50  0001 C CNN
F 3 "" H 2900 6100 50  0000 C CNN
	1    2750 5950
	1    0    0    -1  
$EndComp
$Comp
L C C4
U 1 1 58752671
P 4150 6500
F 0 "C4" H 4175 6600 50  0000 L CNN
F 1 "100pF" H 4050 6400 50  0000 L CNN
F 2 "Capacitors_ThroughHole:C_Rect_L7_W2_P5" H 4188 6350 50  0001 C CNN
F 3 "" H 4150 6500 50  0000 C CNN
	1    4150 6500
	1    0    0    -1  
$EndComp
$Comp
L C C3
U 1 1 5875266A
P 4150 5400
F 0 "C3" H 4175 5500 50  0000 L CNN
F 1 "100pF" H 4050 5300 50  0000 L CNN
F 2 "Capacitors_ThroughHole:C_Rect_L7_W2_P5" H 4188 5250 50  0001 C CNN
F 3 "" H 4150 5400 50  0000 C CNN
	1    4150 5400
	1    0    0    -1  
$EndComp
$Comp
L CP C6
U 1 1 58752663
P 4450 6500
F 0 "C6" H 4475 6600 50  0000 L CNN
F 1 "330µF 25V" H 4300 6700 50  0000 L CNN
F 2 "Capacitors_ThroughHole:C_Radial_D10_L13_P5" H 4488 6350 50  0001 C CNN
F 3 "" H 4450 6500 50  0000 C CNN
	1    4450 6500
	1    0    0    -1  
$EndComp
$Comp
L CP C5
U 1 1 5875265C
P 4450 5400
F 0 "C5" H 4475 5500 50  0000 L CNN
F 1 "330µF 25V" H 4300 5600 50  0000 L CNN
F 2 "Capacitors_ThroughHole:C_Radial_D10_L13_P5" H 4488 5250 50  0001 C CNN
F 3 "" H 4450 5400 50  0000 C CNN
	1    4450 5400
	1    0    0    -1  
$EndComp
$Comp
L Q_NPN_EBC Q1
U 1 1 58752655
P 3450 5250
F 0 "Q1" H 3750 5300 50  0000 R CNN
F 1 "2N2219" H 3900 5200 50  0000 R CNN
F 2 "library:TO-39-3Pin" H 3650 5350 50  0001 C CNN
F 3 "" H 3450 5250 50  0000 C CNN
	1    3450 5250
	1    0    0    -1  
$EndComp
$Comp
L R R3
U 1 1 5875264E
P 2150 6500
F 0 "R3" V 2230 6500 50  0000 C CNN
F 1 "15K" V 2150 6500 50  0000 C CNN
F 2 "Resistors_ThroughHole:Resistor_Horizontal_RM10mm" V 2080 6500 50  0001 C CNN
F 3 "" H 2150 6500 50  0000 C CNN
	1    2150 6500
	1    0    0    -1  
$EndComp
$Comp
L R R2
U 1 1 58752647
P 2150 5400
F 0 "R2" V 2230 5400 50  0000 C CNN
F 1 "15K" V 2150 5400 50  0000 C CNN
F 2 "Resistors_ThroughHole:Resistor_Horizontal_RM10mm" V 2080 5400 50  0001 C CNN
F 3 "" H 2150 5400 50  0000 C CNN
	1    2150 5400
	1    0    0    -1  
$EndComp
$Comp
L VSS #PWR010
U 1 1 586C2F19
P 5100 6150
F 0 "#PWR010" H 5100 6000 50  0001 C CNN
F 1 "VSS" H 5100 6300 50  0000 C CNN
F 2 "" H 5100 6150 50  0000 C CNN
F 3 "" H 5100 6150 50  0000 C CNN
	1    5100 6150
	-1   0    0    1   
$EndComp
$Comp
L VDD #PWR09
U 1 1 586C2CEC
P 4800 4650
F 0 "#PWR09" H 4800 4500 50  0001 C CNN
F 1 "VDD" H 4800 4800 50  0000 C CNN
F 2 "" H 4800 4650 50  0000 C CNN
F 3 "" H 4800 4650 50  0000 C CNN
	1    4800 4650
	1    0    0    -1  
$EndComp
$Comp
L -12V #PWR2
U 1 1 586B681D
P 1950 4450
F 0 "#PWR2" H 1950 4550 50  0001 C CNN
F 1 "-12V" H 1950 4600 50  0000 C CNN
F 2 "" H 1950 4450 50  0000 C CNN
F 3 "" H 1950 4450 50  0000 C CNN
	1    1950 4450
	-1   0    0    1   
$EndComp
$EndSCHEMATC
